…
#### Read Example Data

``` r
library(sensible)
x <- read_hobotemp()
x
```

    ## # A tibble: 9,025 × 5
    ##    Reading DateTime             Temp Intensity Site        
    ##      <int> <dttm>              <dbl>     <dbl> <chr>       
    ##  1      53 2021-05-15 00:04:32  8.18         0 LittleDrisko
    ##  2      54 2021-05-15 00:19:32  8.18         0 LittleDrisko
    ##  3      55 2021-05-15 00:34:32  8.08         0 LittleDrisko
    ##  4      56 2021-05-15 00:49:32  8.18         0 LittleDrisko
    ##  5      57 2021-05-15 01:04:32  8.08         0 LittleDrisko
    ##  6      58 2021-05-15 01:19:32  8.08         0 LittleDrisko
    ##  7      59 2021-05-15 01:34:32  7.98         0 LittleDrisko
    ##  8      60 2021-05-15 01:49:32  7.88         0 LittleDrisko
    ##  9      61 2021-05-15 02:04:32  7.88         0 LittleDrisko
    ## 10      62 2021-05-15 02:19:32  7.88         0 LittleDrisko
    ## # ℹ 9,015 more rows

#### Read Example Data with User Defined Site

``` r
library(sensible)
x <- read_hobotemp(site = "Little Drisko Island")
x
```

    ## # A tibble: 9,025 × 5
    ##    Reading DateTime             Temp Intensity Site                
    ##      <int> <dttm>              <dbl>     <dbl> <chr>               
    ##  1      53 2021-05-15 00:04:32  8.18         0 Little Drisko Island
    ##  2      54 2021-05-15 00:19:32  8.18         0 Little Drisko Island
    ##  3      55 2021-05-15 00:34:32  8.08         0 Little Drisko Island
    ##  4      56 2021-05-15 00:49:32  8.18         0 Little Drisko Island
    ##  5      57 2021-05-15 01:04:32  8.08         0 Little Drisko Island
    ##  6      58 2021-05-15 01:19:32  8.08         0 Little Drisko Island
    ##  7      59 2021-05-15 01:34:32  7.98         0 Little Drisko Island
    ##  8      60 2021-05-15 01:49:32  7.88         0 Little Drisko Island
    ##  9      61 2021-05-15 02:04:32  7.88         0 Little Drisko Island
    ## 10      62 2021-05-15 02:19:32  7.88         0 Little Drisko Island
    ## # ℹ 9,015 more rows

#### Read Example Data With User Defined Start/Stop Dates

``` r
ss <- as.POSIXct(c("2021-05-20", "2021-06-01"), tz = "UTC")
xud <- read_hobotemp(clipped = "user", startstop = ss)
xud
```

    ## # A tibble: 1,152 × 5
    ##    Reading DateTime             Temp Intensity Site        
    ##      <int> <dttm>              <dbl>     <dbl> <chr>       
    ##  1     533 2021-05-20 00:04:32  8.38         0 LittleDrisko
    ##  2     534 2021-05-20 00:19:32  8.48         0 LittleDrisko
    ##  3     535 2021-05-20 00:34:32  8.48         0 LittleDrisko
    ##  4     536 2021-05-20 00:49:32  8.48         0 LittleDrisko
    ##  5     537 2021-05-20 01:04:32  8.58         0 LittleDrisko
    ##  6     538 2021-05-20 01:19:32  8.58         0 LittleDrisko
    ##  7     539 2021-05-20 01:34:32  8.68         0 LittleDrisko
    ##  8     540 2021-05-20 01:49:32  8.68         0 LittleDrisko
    ##  9     541 2021-05-20 02:04:32  8.78         0 LittleDrisko
    ## 10     542 2021-05-20 02:19:32  8.78         0 LittleDrisko
    ## # ℹ 1,142 more rows
…
#### Read Example Data

``` r
library(sensible)
x <- read_tiltometer()
x
```

    ## # A tibble: 67,681 × 5
    ##    DateTime            speed   dir     v     u
    ##    <dttm>              <dbl> <dbl> <dbl> <dbl>
    ##  1 2021-05-15 00:00:00  0.95  319   0.71 -0.62
    ##  2 2021-05-15 00:02:00  1.24  321.  0.96 -0.79
    ##  3 2021-05-15 00:04:00  0.88  315.  0.63 -0.63
    ##  4 2021-05-15 00:06:00  1.01  327.  0.84 -0.55
    ##  5 2021-05-15 00:08:00  1.11  300.  0.55 -0.96
    ##  6 2021-05-15 00:10:00  1.31  326.  1.09 -0.72
    ##  7 2021-05-15 00:12:00  1.8   339.  1.68 -0.65
    ##  8 2021-05-15 00:14:00  0.93  323.  0.74 -0.57
    ##  9 2021-05-15 00:16:00  0.72  351.  0.71 -0.11
    ## 10 2021-05-15 00:18:00  1.43  325.  1.17 -0.82
    ## # ℹ 67,671 more rows
…
#### Read Example Data

``` r
library(sensible)
x <- read_parXtreem()
x
```

    ## # A tibble: 9,121 × 5
    ##     Temp   PAR ID           logDateTime DateTime           
    ##    <dbl> <dbl> <chr>              <dbl> <dttm>             
    ##  1  7.19 1622. FE23BC74DC01  1621022400 2021-05-14 20:00:00
    ##  2  7.13  739. FE23BC74DC01  1621023300 2021-05-14 20:15:00
    ##  3  7.13  206. FE23BC74DC01  1621024200 2021-05-14 20:30:00
    ##  4  7.19  957. FE23BC74DC01  1621025100 2021-05-14 20:45:00
    ##  5  7.19  443. FE23BC74DC01  1621026000 2021-05-14 21:00:00
    ##  6  7.25  635. FE23BC74DC01  1621026900 2021-05-14 21:15:00
    ##  7  7.25  834. FE23BC74DC01  1621027800 2021-05-14 21:30:00
    ##  8  7.38  695. FE23BC74DC01  1621028700 2021-05-14 21:45:00
    ##  9  7.44  433. FE23BC74DC01  1621029600 2021-05-14 22:00:00
    ## 10  7.5   364. FE23BC74DC01  1621030500 2021-05-14 22:15:00
    ## # ℹ 9,111 more rows
…
